Lab_01
…
Which state(s) used the most number of pesticides? How many pesticides did that(those) state(s) use?

data_full %>%
  filter(!is.na(COMPOUND)) %>%
  group_by(STATE, COMPOUND) %>%
  summarise(n_uses = n()) %>%
  group_by(STATE) %>%
  summarise(n_compunds = n()) %>%
  arrange(desc(n_compunds))

## # A tibble: 48 x 2
##    STATE n_compunds
##    <chr>      <int>
##  1 CA           311
##  2 WA           253
##  3 OR           252
##  4 FL           243
##  5 GA           242
##  6 TX           239
##  7 ID           234
##  8 VA           232
##  9 NC           230
## 10 MI           227
## #  with 38 more rows
…
## # A tibble: 1 x 2
## # Groups:   COUNTY, STATE [1]
##   COUNTY       STATE
##   <chr>        <chr>
## 1 Grant County WA

Which state(s) had the largest number of counties? What was the number of counties in that(those) states?

data_full %>%
  select(c(STATE, COUNTY)) %>%
  group_by(STATE) %>%
  summarise(n_counties = n()) %>%
  arrange(desc(n_counties))

## # A tibble: 57 x 2
##    STATE n_counties
##    <chr>      <int>
##  1 TX         56420
##  2 GA         39943
##  3 NC         30826
##  4 KY         30193
##  5 IL         28349
##  6 MI         27420
##  7 MO         27407
##  8 OH         27002
##  9 IN         26708
## 10 VA         24677
## #  with 47 more rows
…
## [1] "ND" "CA" "DE" "IA" "NE"

Which pesticide was used in the most number of states?

data_full %>% 
  filter(!is.na(HIGH_ESTIMATE)) %>%
  group_by(STATE, COMPOUND) %>%
  summarise(county_uses = n()) %>%
  group_by(COMPOUND) %>%
  summarise(state_uses = n()) %>%
  arrange(desc(state_uses))

## # A tibble: 413 x 2
##    COMPOUND       state_uses
##    <chr>               <int>
##  1 2,4-D                  48
##  2 Abamectin              48
##  3 Atrazine               48
##  4 Azoxystrobin           48
##  5 Bentazone              48
##  6 Bifenthrin             48
##  7 Chlorothalonil         48
##  8 Chlorpyrifos           48
##  9 Clethodim              48
## 10 Clothianidin           48
## #  with 403 more rows
…
