lab1
…
lab1

Husain Agha

3/26/2020

What are the median amounts of the top ten pesticides (high estimate usage)?

pest.total %>% group_by(COMPOUND) %>% 
  summarise(medians = median(HIGH_ESTIMATE)) %>% 
  arrange(desc(medians))

## # A tibble: 413 x 2
##    COMPOUND                medians
##    <chr>                     <dbl>
##  1 Glyphosate               15234 
##  2 Propanil                  3175.
##  3 2,4-D                     2997.
##  4 Atrazine                  2354.
##  5 Metolachlor-S             2323.
##  6 Petroleum Distillate      2126.
##  7 Dichloropropene           1673.
##  8 Acetochlor                1382.
##  9 Pendimethalin             1149.
## 10 Copper Sulfate TrIBAsic    793.
## #  with 403 more rows
…
rm(top.usage.per.county)

List the top five states with the largest amount/no. of pesticides grouped by year?

pest.total %>%
  group_by(STATE_CODE, YEAR) %>%
  summarise(usage = sum(HIGH_ESTIMATE)) %>%
  arrange(desc(usage)) %>%
  ungroup() %>% group_split(YEAR)

## [[1]]
## # A tibble: 48 x 3
##    STATE_CODE  YEAR     usage
##    <chr>      <dbl>     <dbl>
##  1 06          2014 59524168.
##  2 19          2014 27853530.
##  3 17          2014 26555737.
##  4 12          2014 26304902.
##  5 53          2014 26186833.
##  6 20          2014 21181997.
##  7 31          2014 21040188.
##  8 48          2014 20834488 
##  9 16          2014 18314143.
## 10 13          2014 16640122.
## #  with 38 more rows
## 
## [[2]]
## # A tibble: 47 x 3
##    STATE_CODE  YEAR     usage
##    <chr>      <dbl>     <dbl>
##  1 53          2015 27771168.
##  2 12          2015 27206445.
##  3 17          2015 27179762.
##  4 19          2015 26496214.
##  5 20          2015 25248883.
##  6 48          2015 23358474.
##  7 31          2015 20378125.
##  8 27          2015 17152120 
##  9 16          2015 15933677.
## 10 38          2015 15615178.
## #  with 37 more rows
## 
## attr(,"ptype")
## # A tibble: 0 x 3
## #  with 3 variables: STATE_CODE <chr>, YEAR <dbl>, usage <dbl>

pest.total %>%
  group_by(STATE_CODE, YEAR) %>%
  distinct(COMPOUND, .keep_all = T) %>%
  summarise(no.pest = n()) %>%
  arrange(desc(no.pest)) %>%
  ungroup() %>% group_split(YEAR)

## [[1]]
## # A tibble: 48 x 3
##    STATE_CODE  YEAR no.pest
##    <chr>      <dbl>   <int>
##  1 06          2014     311
##  2 41          2014     232
##  3 53          2014     225
##  4 13          2014     218
##  5 12          2014     217
##  6 16          2014     216
##  7 51          2014     216
##  8 26          2014     213
##  9 37          2014     213
## 10 48          2014     213
## #  with 38 more rows
## 
## [[2]]
## # A tibble: 47 x 3
##    STATE_CODE  YEAR no.pest
##    <chr>      <dbl>   <int>
##  1 53          2015     235
##  2 41          2015     231
##  3 32          2015     212
##  4 13          2015     210
##  5 12          2015     209
##  6 48          2015     207
##  7 04          2015     206
##  8 37          2015     204
##  9 26          2015     203
## 10 16          2015     202
## #  with 37 more rows
## 
## attr(,"ptype")
## # A tibble: 0 x 3
## #  with 3 variables: STATE_CODE <chr>, YEAR <dbl>, no.pest <int>

List the top five states by largest median usage of chemicals

pest.total %>% group_by(COMPOUND, STATE_CODE) %>% 
  summarise(total.per.compound = sum(HIGH_ESTIMATE)) %>% 
  ungroup() %>% 
  group_by(STATE_CODE) %>%
  summarise(medians = median(total.per.compound)) %>%
  arrange(desc(medians))

## # A tibble: 48 x 2
##    STATE_CODE medians
##    <chr>        <dbl>
##  1 38          11316.
##  2 31           9514.
##  3 53           6904 
##  4 12           6648.
##  5 48           6643 
##  6 05           6506.
##  7 19           6496.
##  8 46           6475.
##  9 06           6038.
## 10 17           5994.
## #  with 38 more rows

Which pesticide was used in the most number of states?

pest.total %>%
  distinct(STATE_CODE, COMPOUND, .keep_all = T) %>% 
  filter(HIGH_ESTIMATE > 0) %>%
  group_by(COMPOUND) %>%
  tally() %>%
  arrange(desc(n))

## # A tibble: 403 x 2
##    COMPOUND          n
##    <chr>         <int>
##  1 2,4-D            48
##  2 Atrazine         48
##  3 Bentazone        48
##  4 Chlorpyrifos     48
##  5 Dicamba          48
##  6 Glyphosate       48
##  7 Mancozeb         48
##  8 Metolachlor-S    48
##  9 Metribuzin       48
## 10 Paraquat         48
## #  with 393 more rows
…
## # A tibble: 1 x 1
##   p.cor
##   <dbl>
## 1 0.111

When is the most dangerous time to drive? Find the hour of the day that has the highest occurance of fatal accidents, normalized by the total number of accidents that occured in that hour (compute the corresponding frequency of fatal accidents to all accidents in that hour). Note: round accident times down. For example, if an accident occured at 23:55 it occured in hour 23

accidents$Time <- hour(strptime(accidents$Time, format = "%H:%M"))
casualties %>% 
  right_join(accidents, by = "Accident_Index") %>% 
  group_by(Time, Casualty_Severity) %>%
  summarise(accidents.by.severity = n()) %>%
  group_by(Time) %>% summarise(fatalities = accidents.by.severity[1], normalised = fatalities/sum(accidents.by.severity)) %>% arrange(desc(normalised))

## # A tibble: 25 x 3
##     Time fatalities normalised
##    <int>      <int>      <dbl>
##  1     4        399     0.0315
##  2     3        486     0.0286
##  3     2        591     0.0278
##  4     5        475     0.0275
##  5     1        676     0.0255
##  6     0        853     0.0236
##  7    23        965     0.0190
##  8     6        615     0.0172
##  9    22       1064     0.0169
## 10    21       1024     0.0143
## #  with 15 more rows
…
